{
    "about": {
        "n-processes": 1,
        "n-threads-total": 16
    },
    "graph": {
        "tasks": {
            "n": {
                "total": 500284,
                "compute": 500284,
                "communication": {
                    "total": 0,
                    "allreduce": 0,
                    "send": 0,
                    "recv": 0
                }
            },
            "degrees": {
                "max": {
                    "total": 5769,
                    "in": 2885,
                    "out": 2884
                },
                "min": {
                    "total": 0,
                    "in": 0,
                    "out": 0
                },
                "med": {
                    "total": 8,
                    "in": 3,
                    "out": 5
                },
                "avg": {
                    "total": 16.3,
                    "in": 8.1,
                    "out": 8.1
                }
            }
        },
        "arcs": {
            "total": 4070647,
            "local": 4070647,
            "remote": 0
        },
        "granularity (s.)": {
            "max": 0.020505,
            "min": 0.0,
            "med": 3.7e-05,
            "avg": 0.000285
        }
    },
    "time": {
        "flat (s.)": {
            "total": 158.288448,
            "max-process-time": 9.893028,
            "graph-gen": 6.617113,
            "in-task": {
                "total": 142.72356,
                "compute": 142.72356,
                "communication": {
                    "total": 0.0,
                    "recv": 0.0,
                    "send": 0.0,
                    "allreduce": 0.0
                }
            },
            "out-task": {
                "total": 15.564888,
                "overhead": 15.091115,
                "famine": {
                    "total": 0.473773,
                    "blocked": 0.023686,
                    "unblocked": 0.450087
                }
            }
        },
        "proportion (%)": {
            "in-task": {
                "total": 90.166757,
                "compute": 90.166757,
                "communication": {
                    "total": 0.0,
                    "recv": 0.0,
                    "send": 0.0,
                    "allreduce": 0.0
                }
            },
            "out-task": {
                "total": 9.833243,
                "overhead": 9.533933,
                "famine": {
                    "total": 0.29931,
                    "blocked": 0.014964,
                    "unblocked": 0.284346
                }
            }
        }
    }
}
